<svg xmlns="http://www.w3.org/2000/svg" width="31.506" height="20.322" viewBox="0 0 31.506 20.322">
  <g id="Symbol_1_1" data-name="Symbol 1 – 1" transform="translate(-191.501 -29.678)">
    <path id="Path_1" data-name="Path 1" d="M15.754,0C5.74,0,.1,7.828,0,10.161c.145,1.613,5.421,10.161,15.752,10.161,10.012,0,15.655-7.828,15.754-10.161C31.359,8.548,26.083,0,15.754,0Z" transform="translate(191.501 29.678)" fill="#fff"/>
    <path id="Path_2" data-name="Path 2" d="M43.029,10.851a7.919,7.919,0,0,1,4.188-.158c.077.039.127.085.127.139.029.911-4.277,1.747-5.124,1.8.853.085,5.95-.5,6.085-1.606a8.053,8.053,0,0,1,2.729,1.764c.473,2.5-6.014,4.414-9.161,4.711-.5.048-.5.16-.046.2,3.152.249,9.061-.753,10.18-3.746a7.909,7.909,0,0,1,1.031,2.119c.056.176.1.353.145.531-.1,3.148-7.494,5.381-9.943,5.064,2.893.8,8.619-.587,10.159-3.408a7.958,7.958,0,0,1-.419,2.75c-.479,1.486-4.742,4.257-7.172,3.91,1.694.5,4.257-.212,6.01-1.691a7.98,7.98,0,1,1-8.789-12.378" transform="translate(161.833 21.37)" fill="#387eb5"/>
    <circle id="Ellipse_1" data-name="Ellipse 1" cx="4.128" cy="4.128" r="4.128" transform="translate(203.125 35.711)" fill="#13110c"/>
  </g>
</svg>
