<svg xmlns="http://www.w3.org/2000/svg" width="37" height="101" viewBox="0 0 37 101">
  <text id="_" data-name="&gt;" transform="translate(1 80)" fill="none" stroke="#fff" stroke-width="1" font-size="75" font-family="RobotoCondensed-Bold, Roboto Condensed" font-weight="700"><tspan x="0" y="0">&gt;</tspan></text>
</svg>
