<svg xmlns="http://www.w3.org/2000/svg" width="67.925" height="82.352" viewBox="0 0 67.925 82.352">
  <path id="Path_4" data-name="Path 4" d="M1577.052,667.234v82.351l67.925-38.081Z" transform="translate(-1577.052 -667.234)" fill="#fff"/>
</svg>
