<svg id="Group_5" data-name="Group 5" xmlns="http://www.w3.org/2000/svg" xmlns:xlink="http://www.w3.org/1999/xlink" width="40.609" height="40.703" viewBox="0 0 40.609 40.703">
  <defs>
    <linearGradient id="linear-gradient" x1="0.5" x2="0.5" y2="1" gradientUnits="objectBoundingBox">
      <stop offset="0" stop-color="#00c3ff"/>
      <stop offset="1" stop-color="#0075ff"/>
    </linearGradient>
  </defs>
  <path id="Path_10" data-name="Path 10" d="M40.609,40.582l-20.3.12L0,40.582V0H40.609Z" fill="url(#linear-gradient)"/>
  <path id="Path_11" data-name="Path 11" d="M84,73.586a9.007,9.007,0,0,1-1.951.522,6.226,6.226,0,0,0,1.5-2.048,5.143,5.143,0,0,1-2.322.891,4.109,4.109,0,0,0-7.06,2.861,4.175,4.175,0,0,0,.059.667,9.99,9.99,0,0,1-8.4-4.262,4.546,4.546,0,0,0-.231,2.83,4.759,4.759,0,0,0,1.461,2.506,3.327,3.327,0,0,1-1.8-.6,4.762,4.762,0,0,0,.99,2.732,4.693,4.693,0,0,0,2.428,1.568,5.867,5.867,0,0,1-2.19.15,6.773,6.773,0,0,0,3.981,2.668c-1.088,1.438-3.947,1.824-5.649,1.632,4.337,3.758,17.581,2.088,17.581-9.889,0-.139-.007-.274-.02-.41A12.142,12.142,0,0,0,84,73.586Z" transform="translate(-53.975 -59.713)" fill="#fff"/>
</svg>
